%YAML 1.1
%TAG !u! tag:unity3d.com,2011:
--- !u!1045 &1
EditorBuildSettings:
  m_ObjectHideFlags: 0
  serializedVersion: 2
  m_Scenes:
  - enabled: 1
    path: Assets/Game/Scenes/Core/Core.unity
    guid: 1eccae4a0fc75374dbba81b4f953aa8f
  - enabled: 1
    path: Assets/Game/Scenes/Core/UI.unity
    guid: 8296010c97b95384788f13e61bda59a5
  - enabled: 1
    path: Assets/Game/Scenes/Game.unity
    guid: 2cda990e2423bbf4892e6590ba056729
  - enabled: 1
    path: Assets/Game/Scenes/Winner.unity
    guid: 3d738626f6f44c340986d7e9417e1287
  m_configObjects: {}
